{
  "model_name": "DL1r-VR_track_jets-ttbar-600GeV-pT_cut",
  "scale_dict": "params_MC16D-2019-VRjets-ttbar-600GeV_pTcut.json",
  "train_file": "DL1Training-VRjets_ttbar_MC16D_2019-preprocessed-DL1r-stats-600GeV_pTcut_merged.h5",
  "validation_file": "MC16d_hybrid_odd_100_VRtrackJets-no-pTcuts-file_0.h5",
  "add_validation_file": "MC16d_hybrid_odd_0_ext-Zprime_VRtrackJets-no-pTcuts-stats-file_0.h5",
  "variable_config": "configs/DL1r_Variables.json",
  "NN_structure":  {
    "lr": 0.01,
    "batch_size": 35000,
    "activations": ["relu", "relu", "relu", "relu", "relu", "relu", "relu", "relu"],
    "units": [256, 128, 60, 48, 36, 24, 12, 6],
    "dropout_rate": [0.2, 0.1, 0.1, 0.1, 0.1, 0.1, 0.1, 0.1]
    }
}
